Data Cleaning
…
## # A tibble: 73 x 4
##    term                                  estimate std.error  p.value
##    <chr>                                    <dbl>     <dbl>    <dbl>
##  1 pvote08                                 -1.74     0.220  2.10e-15
##  2 partyreg12.charnone, ind., didn't say    0.868    0.169  2.90e- 7
##  3 ideo.diff.repub                         -0.394    0.0825 1.79e- 6
##  4 CC12_321                                -0.336    0.0819 4.17e- 5
##  5 CC12_302                                 0.253    0.0866 3.51e- 3
##  6 CC12_322_3                              -0.453    0.174  9.31e- 3
##  7 religpew_12_charMormon                   1.30     0.539  1.56e- 2
##  8 CC12_322_4                              -0.364    0.176  3.86e- 2
##  9 religpew_12_charRoman Catholic           0.709    0.354  4.53e- 2
## 10 CC12_341E                                0.132    0.0744 7.63e- 2
## # ... with 63 more rows
…
